<?xml version="1.0" encoding="utf-8"?>
<!-- Generator: Adobe Illustrator 21.1.0, SVG Export Plug-In . SVG Version: 6.00 Build 0)  -->
<svg version="1.1" id="Capa_1" xmlns="http://www.w3.org/2000/svg" xmlns:xlink="http://www.w3.org/1999/xlink" x="0px" y="0px"
	 viewBox="0 0 70 70" style="enable-background:new 0 0 70 70;" xml:space="preserve">
<style type="text/css">
	.st0{fill:#CC3333;}
	.st1{fill:#FF6666;}
	.st2{fill:url(#SVGID_1_);}
	.st3{fill:#222221;}
	.st4{fill:#B42E32;}
	.st5{opacity:0.3;fill:url(#SVGID_2_);enable-background:new    ;}
	.st6{fill:url(#SVGID_3_);}
	.st7{opacity:0.3;fill:url(#SVGID_4_);enable-background:new    ;}
</style>
<g>
	<path class="st0" d="M-5.2-178.3c-0.7-1.8-2.1-3.5-4.2-4.8l-45.3-29.3c-6.3-4-16.4-4-22.7,0l-45.3,29.3c-2.1,1.4-3.5,3.1-4.2,4.8
		c-1.3,3.4,0.1,7.1,4.2,9.8l17.9,11.5l27.4-17.7c6.3-4,16.4-4,22.7,0l27.4,17.7l17.9,11.6c3.1,2,4.7,4.7,4.7,7.3v-37.7v0
		C-4.8-176.6-4.9-177.4-5.2-178.3z"/>
	<g>
		<g>
			<path class="st1" d="M-9.5-145.4l-17.9-11.6l-27.4,17.7c-6.3,4-16.4,4-22.7,0l-27.4-17.7l-17.9-11.5c-2.9-1.9-4.5-4.3-4.6-6.8
				c0,0,0,0-0.1,0l0.1,36.5c-0.1,1.4,0.1,2.8,0.8,4.1c0.8,1.4,2,2.8,3.8,3.9l45.3,29.2c6.3,4,16.4,4,22.7,0l45.4-29.2
				c1.8-1.1,3-2.5,3.8-3.9c0.6-1.1,0.9-2.2,0.9-3.4v0C-4.8-140.7-6.3-143.4-9.5-145.4z"/>
		</g>
	</g>
	<g>
		
			<linearGradient id="SVGID_1_" gradientUnits="userSpaceOnUse" x1="-225.7466" y1="33.7268" x2="-102.9812" y2="33.7268" gradientTransform="matrix(1 0 0 1 98.2251 -170.6075)">
			<stop  offset="0" style="stop-color:#F8E399;stop-opacity:0.6"/>
			<stop  offset="0.3583" style="stop-color:#BF8236;stop-opacity:0.3208"/>
			<stop  offset="0.5481" style="stop-color:#A85C3C;stop-opacity:0.226"/>
			<stop  offset="0.7236" style="stop-color:#974240;stop-opacity:0.1382"/>
			<stop  offset="0.8795" style="stop-color:#8D3142;stop-opacity:6.030000e-02"/>
			<stop  offset="1" style="stop-color:#8A2C43;stop-opacity:0"/>
		</linearGradient>
		<path class="st2" d="M-9.5-145.4l-17.9-11.6l-27.4,17.7c-6.3,4-16.4,4-22.7,0l-27.4-17.7l-17.9-11.5c-2.9-1.9-4.5-4.3-4.6-6.8
			c0,0,0,0-0.1,0l0.1,36.5c-0.1,1.4,0.1,2.8,0.8,4.1c0.8,1.4,2,2.8,3.8,3.9l45.3,29.2c6.3,4,16.4,4,22.7,0l45.4-29.2
			c1.8-1.1,3-2.5,3.8-3.9c0.6-1.1,0.9-2.2,0.9-3.4v0C-4.8-140.7-6.3-143.4-9.5-145.4z"/>
	</g>
	<g>
		<path class="st3" d="M22.9-135h-8.4v-45.8c1.6,0,3,0.2,4.2,0.8c0.5,0.2,1,0.6,1.6,1c0.5,0.4,1,0.9,1.4,1.5c0.4,0.6,0.7,1.3,1,2.2
			c0.2,0.9,0.4,1.9,0.4,3c0,0.4,0,1,0,1.8s0,1.9,0,3.1c0,1.2,0,2.6,0,4.1c0,1.5,0,3.1,0,4.7c0,1.6,0,3.3,0,5c0,1.7,0,3.4,0,5
			c0,1.6,0,3.2,0,4.7c0,1.5,0,2.8,0,4c0,1.2,0,2.2,0,3.1C22.9-135.9,22.9-135.4,22.9-135z"/>
		<path class="st3" d="M93.8-142.8h8.1c2.9-0.1,5.4-0.8,7.7-1.9c1-0.5,1.9-1.1,2.8-1.9c0.9-0.8,1.7-1.7,2.5-2.8
			c0.7-1.1,1.3-2.4,1.7-3.9c0.4-1.5,0.7-3.2,0.7-5.2c0-0.8-0.1-1.6-0.3-2.4c-0.2-0.8-0.4-1.5-0.7-2.1c-0.3-0.7-0.6-1.3-1-1.9
			c-0.4-0.6-0.7-1.1-1.1-1.6c-0.9-1.1-1.9-2.1-3-3c-0.8-0.5-1.6-1-2.6-1.4c-0.8-0.4-1.8-0.7-2.9-1c-1.1-0.3-2.4-0.5-3.7-0.5
			c-0.3,0-0.6,0-1.1,0c-0.5,0-1,0-1.5,0c-0.6,0-1.2,0-1.8,0c-0.7,0-1.3,0-1.9,0c-1.5,0-3.1,0-4.9,0l-0.1,37.3h-8.2v-45.2h19
			c3.7,0,6.9,0.6,9.9,1.7c2.9,1.1,5.5,2.8,7.8,5.1c4.2,4.3,6.4,9.5,6.4,15.8c0,6.3-2.2,11.5-6.5,15.8c-4.4,4.4-10.1,6.7-17.1,6.8
			c-1.5,0.1-2.9-0.1-4-0.7c-0.5-0.2-1-0.5-1.5-0.9c-0.5-0.4-0.9-0.8-1.3-1.4c-0.4-0.6-0.7-1.3-0.9-2.1
			C93.9-140.8,93.8-141.7,93.8-142.8z"/>
		<path class="st3" d="M141.7-135h-8.4v-45.8c1.6,0,3,0.2,4.2,0.8c0.5,0.2,1,0.6,1.5,1c0.5,0.4,1,0.9,1.4,1.5c0.4,0.6,0.7,1.3,1,2.2
			c0.2,0.9,0.4,1.9,0.4,3c0,0.4,0,1,0,1.8s0,1.9,0,3.1s0,2.6,0,4.1c0,1.5,0,3.1,0,4.7c0,1.6,0,3.3,0,5c0,1.7,0,3.4,0,5
			c0,1.6,0,3.2,0,4.7c0,1.5,0,2.8,0,4c0,1.2,0,2.2,0,3.1C141.7-135.9,141.7-135.4,141.7-135z"/>
		<path class="st3" d="M173.9-135c-3.4,0-6.5-0.6-9.3-1.7c-2.8-1.1-5.4-2.8-7.7-5c-2.3-2.3-4.1-4.8-5.2-7.5c-1.2-2.7-1.7-5.7-1.7-9
			c0-3.3,0.6-6.3,1.8-9c1.2-2.7,2.9-5.2,5.3-7.5c4.6-4.4,10.3-6.6,16.9-6.6c1.9,0,3.7,0.2,5.4,0.6c1.7,0.4,3.4,0.9,5.1,1.7
			c1.6,0.8,3.1,1.7,4.5,2.9c1.4,1.1,2.7,2.5,4,4l-6.8,5.1c-1.5-2.2-3.3-3.8-5.3-4.8c-2-1.1-4.3-1.6-6.9-1.6c-4.1,0-7.7,1.5-10.7,4.4
			c-3.1,3-4.6,6.6-4.6,10.9c0,4.2,1.5,7.8,4.6,10.8c3,3,6.6,4.5,10.7,4.5h19.1c0,1-0.1,1.9-0.3,2.7c-0.2,0.8-0.5,1.4-0.9,2
			c-0.4,0.6-0.8,1-1.3,1.4c-0.5,0.4-1,0.7-1.5,0.9c-1.2,0.5-2.5,0.8-4,0.8L173.9-135L173.9-135z"/>
		<path class="st3" d="M210.3-135h-8.3v-45.8c1.6,0,3,0.2,4.2,0.8c0.5,0.2,1,0.6,1.5,1c0.5,0.4,1,0.9,1.3,1.5c0.4,0.6,0.7,1.3,1,2.2
			c0.2,0.9,0.4,1.9,0.4,3c0,0.4,0,1,0,1.8s0,1.9,0,3.1c0,1.2,0,2.6,0,4.1c0,1.5,0,3.1,0,4.7c0,1.6,0,3.3,0,5c0,1.7,0,3.4,0,5
			c0,1.6,0,3.2,0,4.7c0,1.5,0,2.8,0,4c0,1.2,0,2.2,0,3.1C210.3-135.9,210.3-135.4,210.3-135z"/>
		<path class="st3" d="M254.1-175.6c3.8,3.8,5.7,8.5,5.7,14v7.9c0,5.5-1.9,10.1-5.7,14c-3.7,3.8-8.6,5.8-14.5,5.8h-0.1
			c-6,0-10.9-1.9-14.6-5.8c-3.8-3.8-5.7-8.5-5.7-14v-7.9c0-5.5,1.9-10.2,5.7-14c3.7-3.8,8.6-5.7,14.5-5.8v0h0.1
			C245.4-181.4,250.3-179.5,254.1-175.6z M248.1-145.8c0.4-0.4,0.8-0.9,1.1-1.4c0.3-0.5,0.6-1,0.9-1.5c0.2-0.5,0.4-1.1,0.6-1.6
			c0.2-0.5,0.3-1,0.4-1.5c0.3-1.1,0.4-2.3,0.4-3.4v-5c0-1.1-0.2-2.3-0.4-3.4c-0.1-0.5-0.2-1-0.4-1.5c-0.2-0.5-0.4-1.1-0.6-1.6
			c-0.2-0.5-0.5-1-0.9-1.5c-0.3-0.5-0.7-1-1.1-1.4c-0.6-0.7-1.4-1.3-2.2-1.8c-0.4-0.2-0.8-0.4-1.2-0.7c-0.4-0.2-0.9-0.4-1.4-0.6
			c-0.5-0.2-1.1-0.3-1.7-0.4c-0.6-0.1-1.2-0.2-1.9-0.2h-0.1c-0.7,0-1.3,0.1-1.9,0.2c-0.6,0.1-1.2,0.2-1.7,0.4
			c-0.5,0.2-1,0.4-1.5,0.6c-0.5,0.2-0.9,0.4-1.2,0.7c-0.9,0.5-1.6,1.1-2.3,1.8c-0.4,0.4-0.8,0.9-1.1,1.4c-0.3,0.5-0.6,1-0.9,1.5
			c-0.2,0.5-0.4,1.1-0.6,1.6c-0.2,0.5-0.3,1-0.4,1.5c-0.3,1.1-0.4,2.3-0.4,3.4v5c0,1.2,0.2,2.3,0.4,3.4c0.1,0.5,0.2,1,0.4,1.5
			c0.2,0.5,0.4,1.1,0.6,1.6c0.2,0.5,0.5,1,0.9,1.5c0.3,0.5,0.7,1,1.1,1.4c0.7,0.7,1.4,1.3,2.3,1.8c0.4,0.2,0.8,0.5,1.2,0.7
			c0.4,0.2,0.9,0.4,1.4,0.6c0.5,0.2,1.1,0.3,1.7,0.4c0.6,0.1,1.2,0.2,1.9,0.2v0h0.1c0.7,0,1.3-0.1,1.9-0.2c0.6-0.1,1.2-0.2,1.7-0.4
			c0.5-0.2,1-0.4,1.5-0.6c0.5-0.2,0.9-0.4,1.2-0.7C246.7-144.5,247.4-145.1,248.1-145.8z"/>
		<path class="st3" d="M70.9-175.2c-0.2-0.8-0.5-1.6-0.9-2.2c-0.4-0.6-0.8-1.1-1.3-1.5c-0.5-0.4-1-0.7-1.5-0.9
			c-1.2-0.5-2.5-0.8-4-0.7v28c-4.4-4.6-8.4-8.8-12.1-12.6c-1-1.1-2.1-2.2-3.1-3.3c-1.1-1.1-2.1-2.2-3.1-3.2c-1-1-1.9-2-2.8-3
			c-0.6-0.6-1.2-1.2-1.7-1.8c-0.2-0.3-0.5-0.5-0.8-0.8c-0.1-0.1-0.1-0.1-0.2-0.2c-0.5-0.4-1-0.7-1.5-1c-1.2-0.6-2.6-0.8-4.2-0.8
			v12.5v0.6c0,0,0,0,0,0v13.3c0,0,0,0,0,0v17.6h8.5l0-26.3l21,21.1l7.5,7.6h0.5v-21.5c0,0,0,0,0.1,0v-18
			C71.2-173.4,71.1-174.4,70.9-175.2z"/>
	</g>
	<g>
		<path class="st4" d="M14.5-108.7c0-5.1,3.3-8.4,8-8.4c1.7,0,3.4,0.4,4.6,0.9l-0.3,2.8c-1.3-0.5-2.6-0.9-4.3-0.9
			c-3.1,0-4.7,2.3-4.7,5.6c0,3.2,1.6,5.6,4.7,5.6c1.7,0,2.9-0.4,4.3-0.9l0.3,2.8c-1.2,0.6-2.9,0.9-4.6,0.9
			C17.8-100.3,14.5-103.6,14.5-108.7z"/>
		<path class="st4" d="M28.8-108.7c0-5.1,3.3-8.4,7.9-8.4s8,3.3,8,8.4c0,5.1-3.3,8.4-8,8.4S28.8-103.6,28.8-108.7z M32-108.7
			c0,3.2,1.6,5.6,4.7,5.6s4.7-2.3,4.7-5.6c0-3.2-1.6-5.6-4.7-5.6C33.6-114.3,32-111.9,32-108.7z"/>
		<path class="st4" d="M58-100.6l-7.4-11.1v11.1h-3v-16.1h2.9l6.9,10.4v-10.4h2.9v16.1H58z"/>
		<path class="st4" d="M70.5-113.9v13.3h-3v-13.3H63v-2.9h12.1v2.9H70.5z"/>
		<path class="st4" d="M87-100.6l-3.3-6h-3v6h-2.9v-16.1h5.9c3.1,0,5.6,1.2,5.6,4.7c0,2.5-1.2,3.8-2.7,4.7l3.6,6.8H87L87-100.6z
			 M80.6-114.3v4.9h2.2c2.7,0,3.2-1.1,3.2-2.5c0-1.5-0.6-2.4-3.1-2.4L80.6-114.3L80.6-114.3z"/>
		<path class="st4" d="M91.6-108.7c0-5.1,3.3-8.4,8-8.4c4.6,0,7.9,3.3,7.9,8.4c0,5.1-3.3,8.4-7.9,8.4
			C94.9-100.3,91.6-103.6,91.6-108.7z M94.8-108.7c0,3.2,1.6,5.6,4.7,5.6c3.1,0,4.7-2.3,4.7-5.6c0-3.2-1.6-5.6-4.7-5.6
			C96.4-114.3,94.8-111.9,94.8-108.7z"/>
		<path class="st4" d="M110.5-100.6v-16.1h2.9v13.3h6.6v2.9L110.5-100.6L110.5-100.6z"/>
		<path class="st4" d="M128.2-100.6v-16.1h6c4.6,0,7.9,3,7.9,8.1c0,5.1-3.3,8.1-7.9,8.1H128.2L128.2-100.6z M131.1-113.9v10.5h3.1
			c3.1,0,4.7-2,4.7-5.2c0-3.2-1.6-5.2-4.7-5.2L131.1-113.9L131.1-113.9z"/>
		<path class="st4" d="M145.2-100.6v-16.1h10.3v2.9h-7.3v3.4h5.7v2.9h-5.7v4.1h7.5v2.9L145.2-100.6L145.2-100.6z"/>
		<path class="st4" d="M173.7-100.6l-3.3-6h-3v6h-3v-16.1h5.9c3.1,0,5.6,1.2,5.6,4.7c0,2.5-1.2,3.8-2.7,4.7l3.6,6.8H173.7
			L173.7-100.6z M167.4-114.3v4.9h2.2c2.7,0,3.3-1.1,3.3-2.5c0-1.5-0.6-2.4-3.1-2.4L167.4-114.3L167.4-114.3z"/>
		<path class="st4" d="M179.3-100.6v-16.1h2.9v16.1H179.3z"/>
		<path class="st4" d="M186.2-100.6v-16.1h10.3v2.9h-7.3v3.4h5.7v2.9h-5.7v4.1h7.5v2.9L186.2-100.6L186.2-100.6z"/>
		<path class="st4" d="M199.1-101.5l0.3-3.4c0.9,0.9,2.7,1.7,5.1,1.7c1.7,0,2.9-0.4,2.9-1.8c0-1.6-1.8-2.2-3.8-2.9
			c-2.3-0.8-4.8-1.6-4.8-4.5c0-2.1,1.5-4.8,5.8-4.8c2.2,0,4.3,0.7,5.1,1.2l-0.3,3c-1.7-0.9-3.2-1.5-4.7-1.5c-1.2,0-2.9,0.3-2.9,1.7
			c0,1.3,1.5,1.8,3.3,2.3c2.5,0.8,5.6,1.7,5.6,5.2c0,1.8-0.8,4.7-6.2,4.7C202-100.3,200-100.9,199.1-101.5z"/>
		<path class="st4" d="M212.6-108.7c0-5,3.3-8.4,8-8.4c1.6,0,3.7,0.4,4.8,0.9l-0.3,2.8c-1.2-0.5-3-0.9-4.4-0.9
			c-3.4,0-4.9,2.4-4.9,5.5c0,3.3,1.7,5.6,5,5.6c0.7,0,1.4-0.1,2.2-0.3v-2.9h-1.8v-2.4h4.7v7.2c-1.2,0.7-3.7,1.2-5.5,1.2
			C216-100.3,212.6-103.6,212.6-108.7z"/>
		<path class="st4" d="M228.4-108.7c0-5.1,3.3-8.4,7.9-8.4c4.6,0,8,3.3,8,8.4c0,5.1-3.3,8.4-8,8.4
			C231.8-100.3,228.4-103.6,228.4-108.7z M231.6-108.7c0,3.2,1.6,5.6,4.7,5.6c3.1,0,4.7-2.3,4.7-5.6c0-3.2-1.6-5.6-4.7-5.6
			C233.2-114.3,231.6-111.9,231.6-108.7z"/>
		<path class="st4" d="M246.7-101.5l0.3-3.4c0.9,0.9,2.6,1.7,5.1,1.7c1.7,0,2.9-0.4,2.9-1.8c0-1.6-1.8-2.2-3.8-2.9
			c-2.3-0.8-4.8-1.6-4.8-4.5c0-2.1,1.5-4.8,5.8-4.8c2.2,0,4.3,0.7,5.1,1.2l-0.3,3c-1.7-0.9-3.2-1.5-4.7-1.5c-1.2,0-3,0.3-3,1.7
			c0,1.3,1.5,1.8,3.3,2.3c2.5,0.8,5.6,1.7,5.6,5.2c0,1.8-0.8,4.7-6.2,4.7C249.6-100.3,247.6-100.9,246.7-101.5z"/>
	</g>
	
		<linearGradient id="SVGID_2_" gradientUnits="userSpaceOnUse" x1="-225.7305" y1="-6.1044" x2="-102.9836" y2="-6.1044" gradientTransform="matrix(1 0 0 1 98.2251 -170.6075)">
		<stop  offset="0" style="stop-color:#000000"/>
		<stop  offset="0.7351" style="stop-color:#656565;stop-opacity:0.4"/>
	</linearGradient>
	<path class="st5" d="M-5.2-178.3c-0.7-1.8-2.1-3.5-4.2-4.8l-45.3-29.3c-6.3-4-16.4-4-22.7,0l-45.3,29.3c-2.1,1.4-3.5,3.1-4.2,4.8
		c-1.3,3.4,0.1,7.1,4.2,9.8l17.9,11.5l27.4-17.7c6.3-4,16.4-4,22.7,0l27.4,17.7l17.9,11.6c3.1,2,4.7,4.7,4.7,7.3v-37.7v0
		C-4.8-176.6-4.9-177.4-5.2-178.3z"/>
	<path class="st0" d="M67.2,23.7c-0.4-0.9-1.1-1.8-2.2-2.6L41,5.7c-3.3-2.1-8.7-2.1-12,0L5,21.1c-1.1,0.7-1.9,1.6-2.2,2.6
		c-0.7,1.8,0,3.8,2.2,5.2l9.5,6.1L29,25.6c3.3-2.1,8.7-2.1,12,0L55.5,35l9.5,6.1c1.7,1.1,2.5,2.5,2.5,3.9V25v0
		C67.5,24.6,67.4,24.1,67.2,23.7z"/>
	<g>
		<g>
			<path class="st1" d="M65,41.1L55.5,35L41,44.4c-3.3,2.1-8.7,2.1-12,0L14.5,35L5,28.9c-1.6-1-2.4-2.3-2.5-3.6c0,0,0,0,0,0l0,19.3
				c-0.1,0.7,0.1,1.5,0.4,2.2c0.4,0.8,1.1,1.5,2,2.1l24,15.5c3.3,2.1,8.7,2.1,12,0l24-15.5c0.9-0.6,1.6-1.3,2-2.1
				c0.3-0.6,0.5-1.2,0.5-1.8v0C67.5,43.6,66.7,42.2,65,41.1z"/>
		</g>
	</g>
	<g>
		
			<linearGradient id="SVGID_3_" gradientUnits="userSpaceOnUse" x1="-95.7173" y1="216.2139" x2="-30.7328" y2="216.2139" gradientTransform="matrix(1 0 0 1 98.2251 -170.6075)">
			<stop  offset="0" style="stop-color:#F8E399;stop-opacity:0.6"/>
			<stop  offset="0.3583" style="stop-color:#BF8236;stop-opacity:0.3208"/>
			<stop  offset="0.5481" style="stop-color:#A85C3C;stop-opacity:0.226"/>
			<stop  offset="0.7236" style="stop-color:#974240;stop-opacity:0.1382"/>
			<stop  offset="0.8795" style="stop-color:#8D3142;stop-opacity:6.030000e-02"/>
			<stop  offset="1" style="stop-color:#8A2C43;stop-opacity:0"/>
		</linearGradient>
		<path class="st6" d="M65,41.1L55.5,35L41,44.4c-3.3,2.1-8.7,2.1-12,0L14.5,35L5,28.9c-1.6-1-2.4-2.3-2.5-3.6c0,0,0,0,0,0l0,19.3
			c-0.1,0.7,0.1,1.5,0.4,2.2c0.4,0.8,1.1,1.5,2,2.1l24,15.5c3.3,2.1,8.7,2.1,12,0l24-15.5c0.9-0.6,1.6-1.3,2-2.1
			c0.3-0.6,0.5-1.2,0.5-1.8v0C67.5,43.6,66.7,42.2,65,41.1z"/>
	</g>
	
		<linearGradient id="SVGID_4_" gradientUnits="userSpaceOnUse" x1="-95.7125" y1="195.1296" x2="-30.7377" y2="195.1296" gradientTransform="matrix(1 0 0 1 98.2251 -170.6075)">
		<stop  offset="0" style="stop-color:#000000"/>
		<stop  offset="0.7351" style="stop-color:#656565;stop-opacity:0.4"/>
	</linearGradient>
	<path class="st7" d="M67.2,23.7c-0.4-0.9-1.1-1.8-2.2-2.6L41,5.7c-3.3-2.1-8.7-2.1-12,0L5,21.1c-1.1,0.7-1.9,1.6-2.2,2.6
		c-0.7,1.8,0,3.8,2.2,5.2l9.5,6.1L29,25.6c3.3-2.1,8.7-2.1,12,0L55.5,35l9.5,6.1c1.7,1.1,2.5,2.5,2.5,3.9V25v0
		C67.5,24.6,67.4,24.1,67.2,23.7z"/>
</g>
</svg>
